[
    {
        "name": "Principal",
        "position": "mainMenu",
        "items": [
            {
                "id": 1713539839420,
                "label": "Inicio",
                "title": "",
                "type": "frontpage",
                "target": "_self",
                "rel": "",
                "link": "empty",
                "cssClass": "",
                "isHidden": false,
                "items": []
            },
            {
                "id": 1713539851365,
                "label": "Calendario",
                "title": "",
                "type": "post",
                "target": "_self",
                "rel": "",
                "link": 3,
                "cssClass": "",
                "isHidden": false,
                "items": []
            },
            {
                "id": 1713542055808,
                "label": "Dónde estamos",
                "title": "",
                "type": "post",
                "target": "_self",
                "rel": "",
                "link": 6,
                "cssClass": "",
                "isHidden": false,
                "items": []
            }
        ],
        "maxLevels": "-1"
    }
]