{
    "config": {
        "postsPerPage": 6,
        "tagsPostsPerPage": 6,
        "authorsPostsPerPage": 6,
        "excerptLength": 25,
        "logo": "media/website/output.jpg"
    },
    "customConfig": {
        "pageAligment": "center",
        "pageWidth": "864px",
        "frontSource": "default",
        "frontPost": "",
        "frontGallery": false,
        "hero": true,
        "textHero": "<h1 class=\"align-center\">CSO La Rosa</h1>\n<p class=\"align-center\">En pleno centro de Madrid, junto al metro de La Latina, dispuestos a montar gresca.</p>\n<p class=\"align-center\">C/ Bastero 1</p>",
        "tagsTagCount": true,
        "tagsPostCount": true,
        "listingFeaturedImage": true,
        "listingAuthor": true,
        "listingDate": true,
        "listingTag": "tags",
        "listingReadMore": true,
        "submenu": "auto",
        "submenuWidth": "240",
        "mobilemenu": "sidebar",
        "mobilemenuExpandableSubmenus": true,
        "accentColor": "0, 78%, 67%",
        "customAccentColor": "#FFA96B",
        "fontBody": "jetbrainsmono",
        "fontHeadings": "jetbrainsmono",
        "fontMenu": "var(--body-font)",
        "fontLogo": "var(--body-font)",
        "minFontSize": "1",
        "maxFontSize": "1",
        "lineHeight": "1.5",
        "fontBodyWeight": "400",
        "fontBoldWeight": "700",
        "fontHeadignsWeight": "700",
        "fontHeadingsTransform": "none",
        "shareFacebook": false,
        "shareTwitter": false,
        "shareTwitterName": "",
        "sharePinterest": false,
        "shareMix": false,
        "shareLinkedin": false,
        "shareBuffer": false,
        "shareWhatsApp": false,
        "socialButtons": false,
        "socialFacebook": "",
        "socialTwitter": "",
        "socialInstagram": "",
        "socialLinkedin": "",
        "socialVimeo": "",
        "socialPinterest": "",
        "socialYoutube": "",
        "copyrightText": "<p>© 2024 Powered by Publii CMS :: <a href=\"https://github.com/panr/hugo-theme-terminal\" target=\"_blank\" rel=\"noopener\">Theme</a> ported by the <a href=\"https://getpublii.com/customization-service/\" target=\"_blank\" rel=\"noopener\">Publii Team</a></p>",
        "galleryItemGap": "0.25rem",
        "galleryLightboxStyle": "pswp--dark",
        "galleryLightboxOpacity": "0.7",
        "galleryAdvanced": false,
        "galleryCounter": true,
        "galleryZoom": true,
        "galleryFullscreen": true,
        "galleryShare": true,
        "galleryClose": true,
        "galleryArrows": true,
        "galleryPreloader": true,
        "galleryCloseOnScroll": true,
        "galleryArrowKeys": true,
        "formatDate": "MMMM D, YYYY",
        "formatDateCustom": "HH:mm:ss YY/MM/DD",
        "lazyLoadEffect": "fadein",
        "faviconUpload": "",
        "faviconExtension": "image/x-icon"
    },
    "postConfig": {
        "displayDate": 1,
        "displayAuthor": 1,
        "displayLastUpdatedDate": 1,
        "displayTags": 1,
        "displayShareButtons": 1,
        "displayPostNavigation": 1,
        "displayComments": 0
    },
    "tagConfig": {
        "displayPostCounter": 1,
        "displayDescription": 1,
        "displayPostList": 1
    },
    "authorConfig": {
        "displayAvatar": 1,
        "displayPostCounter": 1,
        "displayDescription": 1,
        "displayWebsite": 1,
        "displayPostList": 1
    },
    "defaultTemplates": {
        "post": ""
    }
}