{
    "config": {
        "postsPerPage": 8,
        "tagsPostsPerPage": 8,
        "authorsPostsPerPage": 8,
        "excerptLength": 12,
        "logo": "media/website/output.jpg"
    },
    "customConfig": {
        "pageMargin": "25px",
        "mainColumnWidth": "940px",
        "rightColumnWidth": "270px",
        "entryWidth": "660px",
        "frontSource": "default",
        "frontPost": "",
        "frontGallery": false,
        "textHero": "<h1>Explore, be curious.</h1>\n<p>Discover stories, thinking, and expertise from writers on any topic.</p>",
        "postFeaturedImageHeight": "auto",
        "relatedPostsNumber": "2",
        "errorPage": "<h1>404 Error</h1>\n<p>The page you were looking for appears to have been moved, deleted or does not exist. You could go back to where you were or head straight to our home page.</p>",
        "cardsAuthor": true,
        "cardsDate": true,
        "cardsMainTag": true,
        "cardsImage": true,
        "cardsExcerpt": true,
        "featured": true,
        "featuredAmount": "5",
        "featuredImage": true,
        "featuredDate": false,
        "authors": true,
        "authorsAmount": "5",
        "authorsAvatar": true,
        "authorsPostCount": true,
        "tags": true,
        "tagsAmount": "10",
        "tagsPostCount": true,
        "newsletter": true,
        "newsletterFormCode": "<form>...",
        "socialButtons": false,
        "socialFacebook": "",
        "socialTwitter": "",
        "socialInstagram": "",
        "socialLinkedin": "",
        "socialVimeo": "",
        "socialPinterest": "",
        "socialYoutube": "",
        "copyright": true,
        "copyrightText": "Powered by Publii - Open-Source CMS for Static Websites",
        "colorScheme": "auto",
        "accentColor": "256, 91%, 59%",
        "customAccentColor": "#61A3BA",
        "fontBody": "publicsans",
        "fontHeadings": "publicsans",
        "fontEntry": "aleo",
        "fontMenu": "var(--font-body)",
        "fontLogo": "var(--font-body)",
        "minFontSize": "1",
        "maxFontSize": "1",
        "lineHeight": "1.6",
        "fontBodyWeight": "400",
        "fontBoldWeight": "650",
        "fontHeadignsWeight": "700",
        "fontHeadingsTransform": "none",
        "shareFacebook": true,
        "shareTwitter": true,
        "shareTwitterName": "",
        "sharePinterest": true,
        "shareMix": false,
        "shareLinkedin": false,
        "shareBuffer": false,
        "shareWhatsApp": false,
        "galleryItemGap": "0.6rem",
        "galleryLightboxStyle": "pswp--dark",
        "galleryLightboxOpacity": "0.7",
        "galleryAdvanced": false,
        "galleryCounter": true,
        "galleryZoom": true,
        "galleryFullscreen": true,
        "galleryShare": true,
        "galleryClose": true,
        "galleryArrows": true,
        "galleryPreloader": true,
        "galleryCloseOnScroll": true,
        "galleryArrowKeys": true,
        "codeMaxHeight": "100%",
        "pagePrefetching": false,
        "formatDate": "MMM D, YYYY",
        "formatDateCustom": "HH:mm:ss YY/MM/DD",
        "lazyLoadEffect": "fadein",
        "faviconUpload": "",
        "faviconExtension": "image/x-icon"
    },
    "postConfig": {
        "displayPostLead": "",
        "displayMainTag": 1,
        "displayAuthor": 1,
        "displayDate": 1,
        "displayUpdatedDate": 1,
        "displayShareButtons": 1,
        "displayComments": 0,
        "displayRelatedPosts": 1
    },
    "tagConfig": {
        "displayPostCounter": 1,
        "displayDescription": 1,
        "displayPostList": 1
    },
    "authorConfig": {
        "displayShortDescription": "",
        "displayAvatar": 1,
        "displayPostCounter": 1,
        "displayDescription": 1,
        "displayWebsite": 1,
        "displayPostList": 1
    },
    "defaultTemplates": {
        "post": ""
    }
}