{
    "name": "Massively",
    "version": "1.5.0.0",
    "author": "Theme created by TidyCustoms <https://tidycustoms.net/> based on an HTML template by HTML5 UP <https://html5up.net/>",
    "menus": {
        "mainMenu": {
            "desc": "",
            "name": "Main menu",
            "maxLevels": -1
        }
    },
    "renderer": {
        "relatedPostsNumber": 4,
        "renderRelatedPosts": true,
        "renderSimilarPosts": false,
        "renderPrevNextPosts": false,
        "createContentStructure": true,
        "featuredPostsNumber": 1,
        "createTagPages": true,
        "createAuthorPages": true,
        "createTagsList": true,
        "createSearchPage": false,
        "create404page": true,
        "includeFeaturedInPosts": false,
        "customHTML": {
            "afterPost": "After every post"
        }
    },
    "supportedFeatures": {
        "blockEditor": true,
        "tagsList": true,
        "tagPages": true,
        "tagImages": true,
        "authorPages": true,
        "authorImages": false,
        "searchPage": false,
        "errorPage": true,
        "customSearch": false,
        "customSharing": true,
        "customComments": true,
        "embedConsents": true
    },
    "config": [
        {
            "name": "postsPerPage",
            "label": "Posts per page",
            "value": 6,
            "type": "number"
        },
        {
            "name": "tagsPostsPerPage",
            "label": "Tags posts per page",
            "value": 6,
            "type": "number"
        },
        {
            "name": "authorsPostsPerPage",
            "label": "Authors posts per page",
            "value": 6,
            "type": "number"
        },
        {
            "name": "excerptLength",
            "label": "Excerpt length",
            "value": 23,
            "type": "number"
        },
        {
            "name": "logo",
            "label": "Website logo",
            "value": "",
            "type": "upload",
            "upload": true
        }
    ],
    "customConfig": [
        {
            "name": "separator",
            "type": "separator",
            "label": "Page background image",
            "group": "Layout",
            "size": ""
        },
        {
            "name": "uploadHero",
            "label": "Source",
            "group": "Layout",
            "value": "",
            "type": "upload",
            "upload": true
        },
        {
            "name": "separator",
            "type": "separator",
            "label": "Front page",
            "group": "Layout",
            "size": "big"
        },
        {
            "name": "frontSource",
            "label": "Front page displays",
            "group": "Layout",            
            "value": "default",
            "type": "radio",
            "options": [
                {
                    "label": "Latest posts",
                    "value": "default"
                },
                {
                    "label": "Selected post",
                    "value": "post"
                }
            ]
        },  
        {
            "name": "frontPost",
            "label": "Select post",
            "group": "Layout",
            "note": "This option allows you to display the selected post on the front page. We strongly recommended 'hide' and 'noindex' the selected post to avoid the duplicate content issue.",            
            "value": "",
            "type": "posts-dropdown", 
            "dependencies": [
            {
                "field": "frontSource",
                "value": "post"
            }]
        },
        {
            "name": "frontGallery",
            "group": "Layout",
            "label": "",
            "note": "Enable if you want to display a post with image gallery",
            "value": false,
            "type": "checkbox", 
            "dependencies": [
            {
                "field": "frontSource",
                "value": "post"
            }]
        },
        {
            "name": "separator",
            "type": "separator",
            "label": "",
            "group": "Layout",
            "size": "medium thin"
        },
        {
            "name": "introText",
            "label": "Intro text",
            "group": "Layout",
            "note": "<p>The intro text appears on the front page above the menu.</p>",
            "value": "<h1>This is<br>Massively</h1><p>A free, fully responsive theme created by HTML5 UP &amp; TidyCustoms <br> and released for free under the Creative Commons &amp; MIT licenses</p>",
            "type": "wysiwyg"
        },    
        {
            "name": "includeFeaturedInPosts",
            "label": "Featured posts",
            "group": "Layout",
            "note": "By default, the first wide article on the front page consists of a featured post. If there are multiple featured posts, they are excluded from the post listing to avoid duplication with the first wide post. To change this behavior, enable the relevant option.",
            "value": false,
            "type": "checkbox", 
            "dependencies": [
            {
                "field": "frontSource",
                "value": "default"
            }]
        }, 
        {
            "name": "separator",
            "type": "separator",
            "label": "Post page",
            "group": "Layout",
            "size": "big"
        },
        {
            "name": "relatedPostsNumber",
            "label": "Related post",
            "group": "Layout",
            "note": "Specify number of related posts to show. Zero '0' means no posts.",
            "value": "4",
            "type": "text"
        }, 
        {
            "name": "separator",
            "type": "separator",
            "label": "Pagination",
            "group": "Layout",
            "size": "big"
        },
        {
            "name": "pagination",
            "label": "Layout",
            "group": "Layout",
            "value": "numbered",
            "type": "select",
            "options": [
                {
                    "label": "Buttons",
                    "value": "buttons"
                },
                {
                    "label": "Numbered",
                    "value": "numbered"
                }
            ]
        },

        {
            "name": "separator",
            "type": "separator",
            "label": "",
            "group": "Post list",
            "note": "The Post list section offers a range of options for managing the post list displayed on the front page, tag and author pages. In this area, you can easily enable or disable elements such as date or other elements.",
            "size": "small"
        },  
        {
            "name": "feedFeaturedImage",
            "group": "Post list",
            "label": "Show featured image",
            "value": true,
            "type": "checkbox"
        },      
        {
            "name": "feedDate",
            "group": "Post list",
            "label": "Show date",
            "value": true,
            "type": "checkbox"
        },
        {
            "name": "feedReadMore",
            "group": "Post list",
            "label": "Show 'Read more' button",
            "value": true,
            "type": "checkbox"
        },

        {
            "name": "primaryColor",
            "label": "Primary color",
            "group": "Colors",
            "value": "#18BFEF",
            "type": "colorpicker"
        },             
       
        {
            "name": "separator",
            "type": "separator",
            "label": "Main font settings",
            "group": "Fonts",
            "note": "To explore an extensive list of available fonts, along with detailed information about their typefaces, complete range of weights, and other specifications, please visit our <a href='https://getpublii.com/docs/fonts.html' target='_blank'>documentation</a>.",
            "size": "small"
        },    
        {
            "name": "fontBody",
            "label": "Body font",
            "group": "Fonts",
            "value": "system-ui",
            "type": "select",
            "options": [
                {
                    "label": "OS Default Font",
                    "value": "system-ui",
                    "group": "System"
                },
                {
                    "label": "Aleo",
                    "value": "aleo",
                    "group": "Serif"
                },
                {
                    "label": "Andada Pro",
                    "value": "andadapro",
                    "group": "Serif"
                },
                {
                    "label": "Besley",
                    "value": "besley",
                    "group": "Serif"
                },
                {
                    "label": "Bitter",
                    "value": "bitter",
                    "group": "Serif"
                },
                {
                    "label": "Brygada 1918",
                    "value": "brygada1918",
                    "group": "Serif"
                },
                {
                    "label": "Domine",
                    "value": "domine",
                    "group": "Serif"
                },
                {
                    "label": "Faustina",
                    "value": "faustina",
                    "group": "Serif"
                },
                {
                    "label": "Frank Ruhl Libre",
                    "value": "frankruhllibre",
                    "group": "Serif"
                },
                {
                    "label": "Imbue",
                    "value": "imbue",
                    "group": "Serif"
                },
                {
                    "label": "Kreon",
                    "value": "kreon",
                    "group": "Serif"
                },
                {
                    "label": "Labrada",
                    "value": "labrada",
                    "group": "Serif"
                },
                {
                    "label": "Lora",
                    "value": "lora",
                    "group": "Serif"
                },
                {
                    "label": "Manuale",
                    "value": "manuale",
                    "group": "Serif"
                },
                {
                    "label": "Petrona",
                    "value": "petrona",
                    "group": "Serif"
                },
                {
                    "label": "Playfair Display",
                    "value": "playfairdisplay",
                    "group": "Serif"
                },
                {
                    "label": "Roboto Slab",
                    "value": "robotoslab",
                    "group": "Serif"
                },
                {
                    "label": "Rokkitt",
                    "value": "rokkitt",
                    "group": "Serif"
                },
                {
                    "label": "Yrsa",
                    "value": "yrsa",
                    "group": "Serif"
                },
                {
                    "label": "Advent Pro",
                    "value": "adventpro",
                    "group": "Sans Serif"
                },
                {
                    "label": "Antonio",
                    "value": "antonio",
                    "group": "Sans Serif"
                },
                {
                    "label": "Archivo Narrow",
                    "value": "archivonarrow",
                    "group": "Sans Serif"
                },
                {
                    "label": "Asap",
                    "value": "asap",
                    "group": "Sans Serif"
                },
                {
                    "label": "Assistant",
                    "value": "assistant",
                    "group": "Sans Serif"
                },
                {
                    "label": "Cabin",
                    "value": "cabin",
                    "group": "Sans Serif"
                },
                {
                    "label": "Cairo",
                    "value": "cairo",
                    "group": "Sans Serif"
                },
                {
                    "label": "Dosis",
                    "value": "dosis",
                    "group": "Sans Serif"
                },
                {
                    "label": "Exo",
                    "value": "exo",
                    "group": "Sans Serif"
                },
                {
                    "label": "Figtree",
                    "value": "figtree",
                    "group": "Sans Serif"
                },
                {
                    "label": "Glory",
                    "value": "glory",
                    "group": "Sans Serif"
                },
                {
                    "label": "Heebo",
                    "value": "heebo",
                    "group": "Sans Serif"
                },
                 {
                    "label": "Instrument Sans",
                    "value": "instrumentsans",
                    "group": "Sans Serif"
                },
                {
                    "label": "Jura",
                    "value": "jura",
                    "group": "Sans Serif"
                },
                {
                    "label": "Karla",
                    "value": "karla",
                    "group": "Sans Serif"
                },
                {
                    "label": "Lexend",
                    "value": "lexend",
                    "group": "Sans Serif"
                },
                {
                    "label": "Libre Franklin",
                    "value": "librefranklin",
                    "group": "Sans Serif"
                },
                {
                    "label": "Manrope",
                    "value": "manrope",
                    "group": "Sans Serif"
                },
                {
                    "label": "Maven Pro",
                    "value": "mavenpro",
                    "group": "Sans Serif"
                },
                {
                    "label": "Merriweather Sans",
                    "value": "merriweathersans",
                    "group": "Sans Serif"
                },
                {
                    "label": "Montserrat",
                    "value": "montserrat",
                    "group": "Sans Serif"
                },
                {
                    "label": "Nunito",
                    "value": "nunito",
                    "group": "Sans Serif"
                },
                {
                    "label": "Orbitron",
                    "value": "orbitron",
                    "group": "Sans Serif"
                },
                {
                    "label": "Oswald",
                    "value": "oswald",
                    "group": "Sans Serif"
                },
                {
                    "label": "Plus Jakarta Sans",
                    "value": "plusjakartasans",
                    "group": "Sans Serif"
                },
                {
                    "label": "Public Sans",
                    "value": "publicsans",
                    "group": "Sans Serif"
                },
                {
                    "label": "Quicksand",
                    "value": "quicksand",
                    "group": "Sans Serif"
                },
                {
                    "label": "Raleway",
                    "value": "raleway",
                    "group": "Sans Serif"
                },
                {
                    "label": "Red Hat Display",
                    "value": "redhatdisplay",
                    "group": "Sans Serif"
                },
                {
                    "label": "Roboto Flex",
                    "value": "robotoflex",
                    "group": "Sans Serif"
                },
                {
                    "label": "Rubik",
                    "value": "rubik",
                    "group": "Sans Serif"
                },
                {
                    "label": "Ruda",
                    "value": "ruda",
                    "group": "Sans Serif"
                },
                {
                    "label": "Smooch Sans",
                    "value": "smoochsans",
                    "group": "Sans Serif"
                },
                {
                    "label": "Spartan",
                    "value": "spartan",
                    "group": "Sans Serif"
                },
                {
                    "label": "Urbanist",
                    "value": "urbanist",
                    "group": "Sans Serif"
                },
                {
                    "label": "Work Sans",
                    "value": "worksans",
                    "group": "Sans Serif"
                },
                {
                    "label": "Yanone Kaffeesatz",
                    "value": "yanonekaffeesatz",
                    "group": "Sans Serif"
                },
                {
                    "label": "Big Shoulders Display",
                    "value": "bigshouldersdisplay",
                    "group": "Cursive"
                },
                {
                    "label": "Comfortaa",
                    "value": "comfortaa",
                    "group": "Cursive"
                },
                {
                    "label": "Dancing Script",
                    "value": "dancingscript",
                    "group": "Cursive"
                },
                {
                    "label": "Gluten",
                    "value": "gluten",
                    "group": "Cursive"
                },
                {
                    "label": "Lemonada",
                    "value": "lemonada",
                    "group": "Cursive"
                },
                {
                    "label": "JetBrains Mono",
                    "value": "jetbrainsmono",
                    "group": "Monospace"
                },
                {
                    "label": "Red Hat Mono",
                    "value": "redhatmono",
                    "group": "Monospace"
                },
                {
                    "label": "Source Code Pro",
                    "value": "sourcecodepro",
                    "group": "Monospace"
                }
            ]
        },  
        {
            "name": "fontHeadings",
            "label": "Headings font (H1-H6)",
            "group": "Fonts",
            "value": "system-ui",
            "type": "select",
            "options": [
                {
                    "label": "OS Default Font",
                    "value": "system-ui",
                    "group": "System"
                },
                {
                    "label": "Aleo",
                    "value": "aleo",
                    "group": "Serif"
                },
                {
                    "label": "Andada Pro",
                    "value": "andadapro",
                    "group": "Serif"
                },
                {
                    "label": "Besley",
                    "value": "besley",
                    "group": "Serif"
                },
                {
                    "label": "Bitter",
                    "value": "bitter",
                    "group": "Serif"
                },
                {
                    "label": "Brygada 1918",
                    "value": "brygada1918",
                    "group": "Serif"
                },
                {
                    "label": "Domine",
                    "value": "domine",
                    "group": "Serif"
                },
                {
                    "label": "Faustina",
                    "value": "faustina",
                    "group": "Serif"
                },
                {
                    "label": "Frank Ruhl Libre",
                    "value": "frankruhllibre",
                    "group": "Serif"
                },
                {
                    "label": "Imbue",
                    "value": "imbue",
                    "group": "Serif"
                },
                {
                    "label": "Kreon",
                    "value": "kreon",
                    "group": "Serif"
                },
                {
                    "label": "Labrada",
                    "value": "labrada",
                    "group": "Serif"
                },
                {
                    "label": "Lora",
                    "value": "lora",
                    "group": "Serif"
                },
                {
                    "label": "Manuale",
                    "value": "manuale",
                    "group": "Serif"
                },
                {
                    "label": "Petrona",
                    "value": "petrona",
                    "group": "Serif"
                },
                {
                    "label": "Playfair Display",
                    "value": "playfairdisplay",
                    "group": "Serif"
                },
                {
                    "label": "Roboto Slab",
                    "value": "robotoslab",
                    "group": "Serif"
                },
                {
                    "label": "Rokkitt",
                    "value": "rokkitt",
                    "group": "Serif"
                },
                {
                    "label": "Yrsa",
                    "value": "yrsa",
                    "group": "Serif"
                },
                {
                    "label": "Advent Pro",
                    "value": "adventpro",
                    "group": "Sans Serif"
                },
                {
                    "label": "Antonio",
                    "value": "antonio",
                    "group": "Sans Serif"
                },
                {
                    "label": "Archivo Narrow",
                    "value": "archivonarrow",
                    "group": "Sans Serif"
                },
                {
                    "label": "Asap",
                    "value": "asap",
                    "group": "Sans Serif"
                },
                {
                    "label": "Assistant",
                    "value": "assistant",
                    "group": "Sans Serif"
                },
                {
                    "label": "Cabin",
                    "value": "cabin",
                    "group": "Sans Serif"
                },
                {
                    "label": "Cairo",
                    "value": "cairo",
                    "group": "Sans Serif"
                },
                {
                    "label": "Dosis",
                    "value": "dosis",
                    "group": "Sans Serif"
                },
                {
                    "label": "Exo",
                    "value": "exo",
                    "group": "Sans Serif"
                },
                {
                    "label": "Figtree",
                    "value": "figtree",
                    "group": "Sans Serif"
                },
                {
                    "label": "Glory",
                    "value": "glory",
                    "group": "Sans Serif"
                },
                {
                    "label": "Heebo",
                    "value": "heebo",
                    "group": "Sans Serif"
                },
                 {
                    "label": "Instrument Sans",
                    "value": "instrumentsans",
                    "group": "Sans Serif"
                },
                {
                    "label": "Jura",
                    "value": "jura",
                    "group": "Sans Serif"
                },
                {
                    "label": "Karla",
                    "value": "karla",
                    "group": "Sans Serif"
                },
                {
                    "label": "Lexend",
                    "value": "lexend",
                    "group": "Sans Serif"
                },
                {
                    "label": "Libre Franklin",
                    "value": "librefranklin",
                    "group": "Sans Serif"
                },
                {
                    "label": "Manrope",
                    "value": "manrope",
                    "group": "Sans Serif"
                },
                {
                    "label": "Maven Pro",
                    "value": "mavenpro",
                    "group": "Sans Serif"
                },
                {
                    "label": "Merriweather Sans",
                    "value": "merriweathersans",
                    "group": "Sans Serif"
                },
                {
                    "label": "Montserrat",
                    "value": "montserrat",
                    "group": "Sans Serif"
                },
                {
                    "label": "Nunito",
                    "value": "nunito",
                    "group": "Sans Serif"
                },
                {
                    "label": "Orbitron",
                    "value": "orbitron",
                    "group": "Sans Serif"
                },
                {
                    "label": "Oswald",
                    "value": "oswald",
                    "group": "Sans Serif"
                },
                {
                    "label": "Plus Jakarta Sans",
                    "value": "plusjakartasans",
                    "group": "Sans Serif"
                },
                {
                    "label": "Public Sans",
                    "value": "publicsans",
                    "group": "Sans Serif"
                },
                {
                    "label": "Quicksand",
                    "value": "quicksand",
                    "group": "Sans Serif"
                },
                {
                    "label": "Raleway",
                    "value": "raleway",
                    "group": "Sans Serif"
                },
                {
                    "label": "Red Hat Display",
                    "value": "redhatdisplay",
                    "group": "Sans Serif"
                },
                {
                    "label": "Roboto Flex",
                    "value": "robotoflex",
                    "group": "Sans Serif"
                },
                {
                    "label": "Rubik",
                    "value": "rubik",
                    "group": "Sans Serif"
                },
                {
                    "label": "Ruda",
                    "value": "ruda",
                    "group": "Sans Serif"
                },
                {
                    "label": "Smooch Sans",
                    "value": "smoochsans",
                    "group": "Sans Serif"
                },
                {
                    "label": "Spartan",
                    "value": "spartan",
                    "group": "Sans Serif"
                },
                {
                    "label": "Urbanist",
                    "value": "urbanist",
                    "group": "Sans Serif"
                },
                {
                    "label": "Work Sans",
                    "value": "worksans",
                    "group": "Sans Serif"
                },
                {
                    "label": "Yanone Kaffeesatz",
                    "value": "yanonekaffeesatz",
                    "group": "Sans Serif"
                },
                {
                    "label": "Big Shoulders Display",
                    "value": "bigshouldersdisplay",
                    "group": "Cursive"
                },
                {
                    "label": "Comfortaa",
                    "value": "comfortaa",
                    "group": "Cursive"
                },
                {
                    "label": "Dancing Script",
                    "value": "dancingscript",
                    "group": "Cursive"
                },
                {
                    "label": "Gluten",
                    "value": "gluten",
                    "group": "Cursive"
                },
                {
                    "label": "Lemonada",
                    "value": "lemonada",
                    "group": "Cursive"
                },
                {
                    "label": "JetBrains Mono",
                    "value": "jetbrainsmono",
                    "group": "Monospace"
                },
                {
                    "label": "Red Hat Mono",
                    "value": "redhatmono",
                    "group": "Monospace"
                },
                {
                    "label": "Source Code Pro",
                    "value": "sourcecodepro",
                    "group": "Monospace"
                }
            ]
        }, 
        {
            "name": "fontMenu",
            "label": "Menu font",
            "group": "Fonts",
            "value": "var(--body-font)",
            "type": "select",
            "options": [
                {
                    "label": "OS Default Font",
                    "value": "system-ui"
                },
                {
                    "label": "Select the font used for the Body",
                    "value": "var(--body-font)"
                },
                {
                    "label": "Select the font used for the Headings",
                    "value": "var(--heading-font)"
                }
            ]
        }, 
        {
            "name": "fontLogo",
            "label": "Logo font",
            "group": "Fonts",
            "value": "var(--body-font)",
            "type": "select",
            "options": [
                {
                    "label": "OS Default Font",
                    "value": "system-ui"
                },
                {
                    "label": "Select the font used for the Body",
                    "value": "var(--body-font)"
                },
                {
                    "label": "Select the font used for the Headings",
                    "value": "var(--heading-font)"
                }
            ]
        }, 
       
        {
            "name": "separator",
            "type": "separator",
            "label": "",
            "group": "Fonts",
            "note": "Note that not all fonts support the full range of weights; instead, they will typically support a standard range between 400 and 700. To see the exact range available for the selected body font, please visit our <a href='https://getpublii.com/docs/fonts.html' target='_blank'>documentation</a>.",
            "size": "small thin"
        },
        {
            "name": "fontBodyWeight",
            "label": "Normal font weight",
            "group": "Fonts",            
            "value": "400",
            "type": "range",
            "min": 100,
            "max": 900,
            "step": 1
        },
        {
            "name": "fontBoldWeight",
            "label": "Bold font weight",
            "group": "Fonts",            
            "value": "700",
            "type": "range",
            "min": 100,
            "max": 900,
            "step": 1
        },
        
        {
            "name": "separator",
            "type": "separator",
            "label": "Headings",
            "group": "Fonts",
            "size": "big"
        },  
        {
            "name": "fontHeadignsWeight",
            "label": "H1-H6 font weight",
            "group": "Fonts",         
            "value": "700",
            "type": "range",
            "min": 100,
            "max": 900,
            "step": 1
        },
        {
            "name": "fontHeadingsTransform",
            "label": "H1-H6 text transform",
            "group": "Fonts",            
            "value": "none",
            "type": "select",
            "options": [
                {
                    "label": "None",
                    "value": "none"
                },
                {
                    "label": "Capitalize",
                    "value": "capitalize"
                },
                {
                    "label": "Lowercase",
                    "value": "lowercase"
                },
                {
                    "label": "Uppercase",
                    "value": "uppercase"
                }
            ]
        },

        {
            "name": "shareFacebook",
            "group": "Share Buttons",
            "label": "Facebook",
            "value": false,
            "type": "checkbox"
        },
        {
            "name": "shareTwitter",
            "group": "Share Buttons",
            "label": "X (formerly Twitter)",
            "value": false,
            "type": "checkbox"
        },
        {
            "name": "shareTwitterName",
            "group": "Share Buttons",
            "note": "Enter your X account's handle here; it will be used when the X share button is clicked on your site e.g. 'via @XHandle'. If left blank, the default username of @SiteName will be used",
            "value": "",
            "type": "text",
            "dependencies": [{
                "field": "shareTwitter",
                "value": "true"
            }]
        },
        {
            "name": "sharePinterest",
            "group": "Share Buttons",
            "label": "Pinterest",
            "value": false,
            "type": "checkbox"
        },
        {
            "name": "shareMix",
            "group": "Share Buttons",
            "label": "Mix (formerly StumbleUpon)",
            "value": false,
            "type": "checkbox"
        },
        {
            "name": "shareLinkedin",
            "group": "Share Buttons",
            "label": "LinkedIn",
            "value": false,
            "type": "checkbox"
        },
        {
            "name": "shareBuffer",
            "group": "Share Buttons",
            "label": "Buffer",
            "value": false,
            "type": "checkbox"
        },
        {
            "name": "shareWhatsApp",
            "group": "Share Buttons",
            "label": "WhatsApp",
            "value": false,
            "type": "checkbox"
        },
        {
            "name": "socialButtons",
            "group": "Follow buttons",
            "label": "Follow Buttons",
            "note": "Display follow buttons in the navbar opposite the menu.",
            "value": false,
            "type": "checkbox"
        },
        {
            "name": "socialFacebook",
            "label": "Facebook",
            "group": "Follow buttons",
            "placeholder": "Please enter your Facebook URL",
            "value": "",
            "type": "text",
            "dependencies": [{
                "field": "socialButtons",
                "value": "true"
            }]
        },
        {
            "name": "socialTwitter",
            "label": "X (formerly Twitter)",
            "group": "Follow buttons",
            "placeholder": "Please enter your X URL",
            "value": "",
            "type": "text",
            "dependencies": [{
                "field": "socialButtons",
                "value": "true"
            }]
        },

        {
            "name": "socialInstagram",
            "label": "Instagram",
            "group": "Follow buttons",
            "placeholder": "Please enter your Instagram URL",
            "value": "",
            "type": "text",
            "dependencies": [{
                "field": "socialButtons",
                "value": "true"
            }]
        },
        {
            "name": "socialLinkedin",
            "label": "LinkedIn",
            "group": "Follow buttons",
            "placeholder": "Please enter your LinkedIn URL",
            "value": "",
            "type": "text",
            "dependencies": [{
                "field": "socialButtons",
                "value": "true"
            }]
        },
        {
            "name": "socialVimeo",
            "label": "Vimeo",
            "group": "Follow buttons",
            "placeholder": "Please enter your Vimeo URL",
            "value": "",
            "type": "text",
            "dependencies": [{
                "field": "socialButtons",
                "value": "true"
            }]
        },
        {
            "name": "socialPinterest",
            "label": "Pinterest",
            "group": "Follow buttons",
            "placeholder": "Please enter your Pinterest URL",
            "value": "",
            "type": "text",
            "dependencies": [{
                "field": "socialButtons",
                "value": "true"
            }]
        },
        {
            "name": "socialYoutube",
            "label": "Youtube",
            "group": "Follow buttons",
            "placeholder": "Please enter your Youtube URL",
            "value": "",
            "type": "text",
            "dependencies": [{
                "field": "socialButtons",
                "value": "true"
            }]
        },

        {
            "name": "copyrightText",
            "label": "Copyright text",
            "group": "Footer",
            "value": "<ul><li>&copy; Massively</li><li>Design: <a href=\"https://html5up.net\" target=\"_blank\" rel=\"nofollow noopener\">HTML5 UP</a></li><li>Powered by Publii</li></ul>",
            "type": "wysiwyg"
        },
        {
            "name": "galleryItemGap",
            "label": "Item spacing",
            "group": "Gallery",
            "note": "Use of REM units recommended but you can also use others (px, vw,)",
            "value": "0.28333rem",
            "type": "text"
        },
        {
            "name": "separator",
            "type": "separator",
            "label": "",
            "group": "Gallery",
            "size": "small thin"
         },
        {
            "name": "galleryLightboxStyle",
            "label": "Lightbox style",
            "group": "Gallery",
            "note": "Set the lightbox slideshow style by choosing dark or light overlay",
            "value": "pswp--dark",
            "type": "select",
            "options": [
                {
                    "label": "Dark",
                    "value": "pswp--dark"
                },
                {
                    "label": "Light",
                    "value": "pswp--light"
                }
            ]
        },
        {
            "name": "galleryLightboxOpacity",
            "label": "",
            "group": "Gallery",
            "note": "Adjust the lightbox overlay transparency",
            "value": "0.7",
            "type": "range",
            "min": 0,
            "max": 1,
            "step": 0.01
        },
        {
            "name": "separator",
            "type": "separator",
            "label": "",
            "group": "Gallery",
            "size": "small thin"
         },
        {
            "name": "galleryAdvanced",
            "label": "Advanced lightbox settings",
            "group": "Gallery",
            "value": false,
            "type": "checkbox"
        },
        {
            "name": "galleryCounter",
            "label": "Current slide / total number",
            "group": "Gallery",
            "value": true,
            "type": "checkbox",
            "dependencies": [{
                "field": "galleryAdvanced",
                "value": "true"
            }]
        },
        {
            "name": "galleryZoom",
            "label": "Zoom in/out button",
            "group": "Gallery",
            "value": true,
            "type": "checkbox",
            "dependencies": [{
                "field": "galleryAdvanced",
                "value": "true"
            }]
        },
        {
            "name": "galleryFullscreen",
            "label": "Toggle fullscreen button",
            "group": "Gallery",
            "value": true,
            "type": "checkbox",
            "dependencies": [{
                "field": "galleryAdvanced",
                "value": "true"
            }]
        },
        {
            "name": "galleryShare",
            "label": "Share button",
            "group": "Gallery",
            "value": true,
            "type": "checkbox",
            "dependencies": [{
                "field": "galleryAdvanced",
                "value": "true"
            }]
        },
        {
            "name": "galleryClose",
            "label": "Close button",
            "group": "Gallery",
            "value": true,
            "type": "checkbox",
            "dependencies": [{
                "field": "galleryAdvanced",
                "value": "true"
            }]
        },
        {
            "name": "galleryArrows",
            "label": "Next / Previous arrows",
            "group": "Gallery",
            "value": true,
            "type": "checkbox",
            "dependencies": [{
                "field": "galleryAdvanced",
                "value": "true"
            }]
        },
        {
            "name": "galleryPreloader",
            "label": "Preloader",
            "group": "Gallery",
            "note": "Loading indicator is displayed with 1s delay, so if the photo loads faster it will be invisible.",
            "value": true,
            "type": "checkbox",
            "dependencies": [{
                "field": "galleryAdvanced",
                "value": "true"
            }]
        },
        {
            "name": "galleryCloseOnScroll",
            "label": "Close gallery on page scroll",
            "group": "Gallery",
            "note": "Option works just for devices without hardware touch support.",
            "value": true,
            "type": "checkbox",
            "dependencies": [{
                "field": "galleryAdvanced",
                "value": "true"
            }]
        },
        {
            "name": "galleryArrowKeys",
            "label": "Keyboard navigation",
            "group": "Gallery",
            "note": "Keyboard left or right arrow key navigation.",
            "value": true,
            "type": "checkbox",
            "dependencies": [{
                "field": "galleryAdvanced",
                "value": "true"
            }]
        },

        {
            "name": "formatDate",
            "label": "Date format",
            "group": "Additional",
            "value": "MMMM D, YYYY",
            "type": "select",
            "options": [
                {
                    "label": "Nov 1, 2016",
                    "value": "MMM D, YYYY"

            },
                {
                    "label": "1 Nov 2016",
                    "value": "D MMM YYYY"

            },
                {
                    "label": "November 1, 2016",
                    "value": "MMMM D, YYYY"
            },
                {
                    "label": "1 November 2016",
                    "value": "D MMMM YYYY"
            },
                {
                    "label": "Sunday, November 1, 2016",
                    "value": "dddd, MMMM D, YYYY"
            },
                {
                    "label": "Sunday, 1 November 2016",
                    "value": "dddd, D MMMM YYYY"
            },
                {
                    "label": "November 1, 2016 10:02:05",
                    "value": "MMMM D, YYYY HH:mm:ss"

            },
                {
                    "label": "1 November 2016 10:02:05",
                    "value": "D MMMM YYYY HH:mm:ss"

            },
                {
                    "label": "01/21/2016",
                    "value": "MM/DD/YYYY"
            },
                {
                    "label": "21/01/2016",
                    "value": "DD/MM/YYYY"
            },
                {
                    "label": "Custom - create your own date format",
                    "value": "custom"
            }
            ]
        },

        {
            "name": "formatDateCustom",
            "group": "Additional",
            "label": "Create a custom date format",
            "note": "More details you can find <a href='https://github.com/taylorhakes/fecha' target='_blank'>here.</a>",
            "value": "HH:mm:ss YY/MM/DD",
            "type": "text",
            "dependencies": [{
                "field": "formatDate",
                "value": "custom"
            }]
        },
        {
            "name": "separator",
            "type": "separator",
            "label": "",
            "group": "Additional",
            "size": "small"
         },       
        {
            "name": "lazyLoadEffect",
            "label": "Lazy load effects",
            "group": "Additional",
            "note": "This option works only if the 'Media lazy load' option is enabled in the Website Speed tab under Site Settings",
            "value": "fadein",
            "type": "select",
            "options": [
                {
                    "label": "Fade in",
                    "value": "fadein"
                },
                {
                    "label": "None",
                    "value": "none"                
            }]
        },
        {
            "name": "separator",
            "type": "separator",
            "label": "",
            "group": "Additional",
            "size": "small"
         },
        {
            "name": "faviconUpload",
            "label": "Upload favicon file",
            "group": "Additional",
            "note": "The ideal size of a favicon is 16x16 pixels. Save your favicon as either favicon.png or favicon.ico",
            "value": "",
            "type": "smallupload",
            "upload": true
        },
        {
            "name": "faviconExtension",
            "label": "Favicon extension",
            "group": "Additional",
            "value": "image/x-icon",
            "type": "select",
            "options": [
                {
                    "label": ".ico",
                    "value": "image/x-icon"
                },
                {
                    "label": ".png",
                    "value": "image/png"
                }]
        }
    ],
    "postConfig": [
        {
            "name": "introText",
            "label": "Intro text",
            "note": "Displayed between the post title and the featured image on the post page.",
            "value": "",
            "type": "textarea"
        },
         {
            "name": "displayDate",
            "label": "Display date",
            "value": 1,
            "type": "select",          
            "options": [
                {
                    "label": "Enabled",
                    "value": 1
                },
                {
                    "label": "Disabled",
                    "value": 0
                }
            ]
        },      
          
        {
            "name": "displayLastUpdatedDate",
            "label": "Display last updated date",
            "value": 1,
            "type": "select",
            "options": [
                {
                    "label": "Enabled",
                    "value": 1
                },
                {
                    "label": "Disabled",
                    "value": 0
                }
            ]
        },
        {
            "name": "displayTags",
            "label": "Display tags",
            "value": 1,
            "type": "select",
            "options": [
                {
                    "label": "Enabled",
                    "value": 1
                },
                {
                    "label": "Disabled",
                    "value": 0
                }
            ]
        },
        {
            "name": "displayShareButtons",
            "label": "Display share buttons",
            "value": 1,
            "type": "select",
            "options": [
                {
                    "label": "Enabled",
                    "value": 1
                },
                {
                    "label": "Disabled",
                    "value": 0
                }
            ]
        },
        
        {
            "name": "displayAuthorBio",
            "label": "Display author bio",
            "value": 1,
            "type": "select",
            "options": [
                {
                    "label": "Enabled",
                    "value": 1
                },
                {
                    "label": "Disabled",
                    "value": 0
                }
            ]
        },

        {
            "name": "displayRelatedPosts",
            "label": "Display related posts",
            "value": 1,
            "type": "select",
            "options": [
                {
                    "label": "Enabled",
                    "value": 1
                },
                {
                    "label": "Disabled",
                    "value": 0
                }
            ]
        },
        {
            "name": "displayComments",
            "label": "Display comments",
            "value": 0,
            "type": "select",
            "options": [
                {
                    "label": "Enabled",
                    "value": 1
                },
                {
                    "label": "Disabled",
                    "value": 0
                }
            ]
        }
    ],
    "authorConfig": [
        {
            "name": "displayAvatar",
            "label": "Display avatar",
            "value": 1,
            "type": "select",
            "options": [
                {
                    "label": "Enabled",
                    "value": 1
                },
                {
                    "label": "Disabled",
                    "value": 0
                }
            ]
        },
        {
            "name": "displayPostCounter",
            "label": "Display post counter",
            "value": 1,
            "type": "select",
            "options": [
                {
                    "label": "Enabled",
                    "value": 1
                },
                {
                    "label": "Disabled",
                    "value": 0
                }
            ]
        },
        {
            "name": "displayDescription",
            "label": "Display author biography",
            "value": 1,
            "type": "select",
            "options": [
                {
                    "label": "Enabled",
                    "value": 1
                },
                {
                    "label": "Disabled",
                    "value": 0
                }
            ]
        },
        {
            "name": "displayWebsite",
            "label": "Display author website",
            "value": 1,
            "type": "select",
            "options": [
                {
                    "label": "Enabled",
                    "value": 1
                },
                {
                    "label": "Disabled",
                    "value": 0
                }
            ]
        },
        {
            "name": "displayPostList",
            "label": "Display post list",
            "note": "Disabling the post list can cause duplicate content issues. To avoid this, please disable authors pagination in the SEO section of your site settings.",
            "value": 1,
            "type": "select",
            "options": [
                {
                    "label": "Enabled",
                    "value": 1
                },
                {
                    "label": "Disabled",
                    "value": 0
                }
            ]
        }
    ],
    "tagConfig": [
        {
            "name": "displayPostCounter",
            "label": "Display post counter",
            "value": 1,
            "type": "select",
            "options": [
                {
                    "label": "Enabled",
                    "value": 1
                },
                {
                    "label": "Disabled",
                    "value": 0
                }
            ]
        },
        {
            "name": "displayDescription",
            "label": "Display tag description",
            "value": 1,
            "type": "select",
            "options": [
                {
                    "label": "Enabled",
                    "value": 1
                },
                {
                    "label": "Disabled",
                    "value": 0
                }
            ]
        },
        {
            "name": "displayPostList",
            "label": "Display post list",
            "note": "Disabling the post list can cause duplicate content issues. To avoid this, please disable tag pagination in the SEO section of your site settings.",
            "value": 1,
            "type": "select",
            "options": [
                {
                    "label": "Enabled",
                    "value": 1
                },
                {
                    "label": "Disabled",
                    "value": 0
                }
            ]
        }
    ],
    "files": {
        "ignoreAssets": ["scss", ".DS_Store"],
        "assetsPath": "assets",
        "useDynamicAssets": true,
        "partialsPath": "partials",
        "responsiveImages": {
            "contentImages": {
                "sizes": "(max-width: 48em) 100vw, 768px",
                "dimensions": {
                    "xs": {
                        "width": 300,
                        "height": "auto"
                    },
                    "sm": {
                        "width": 480,
                        "height": "auto"
                    },
                    "md": {
                        "width": 768,
                        "height": "auto"
                    },
                    "lg": {
                        "width": 1024,
                        "height": "auto"
                    },
                    "xl": {
                        "width": 1360,
                        "height": "auto"
                    },
                    "2xl": {
                        "width": 1600,
                        "height": "auto"
                    }
                }
            },

            "featuredImages": {
                "sizes": {
                    "post": "(max-width: 1360px) 100vw, 1360px",
                    "card": "(max-width: 768px) 100vw, 768px"
                },

                "dimensions": {
                    "xs": {
                        "width": 300,
                        "height": "auto",
                        "group": "post,card"
                    },
                    "sm": {
                        "width": 480,
                        "height": "auto",
                        "group": "post,card"
                    },
                    "md": {
                        "width": 768,
                        "height": "auto",
                        "group": "post,card"
                    },
                    "lg": {
                        "width": 1024,
                        "height": "auto",
                        "group": "post"
                    },
                    "xl": {
                        "width": 1360,
                        "height": "auto",
                        "group": "post"
                    }
                }
            },

            "tagImages": {
                "sizes": "(max-width: 768px) 100vw, 768px",
                "dimensions": {
                    "xs": {
                        "width": 300,
                        "height": "auto"
                    },
                    "sm2": {
                        "width": 480,
                        "height": "auto"
                    },
                    "sm": {
                        "width": 768,
                        "height": "auto"
                    }
                }
            },

            "optionImages": {
                "sizes": "(max-width: 1600px) 100vw, 1600px",
                "dimensions": {
                    "xs": {
                        "width": 300,
                        "height": 255,
                        "crop": true
                    },
                    "sm": {
                        "width": 480,
                        "height": "auto"
                    },
                    "md": {
                        "width": 768,
                        "height": "auto"
                    },
                    "lg": {
                        "width": 1024,
                        "height": "auto"
                    },
                    "xl": {
                        "width": 1360,
                        "height": "auto"
                    },
                    "2xl": {
                        "width": 1600,
                        "height": "auto"
                    }
                }
            },
            
            "galleryImages": {
                "sizes": "",
                "dimensions": {
                    "thumbnail": {
                         "width": 720,
                         "height": "auto"                       
                    }
                }
            }
        }
    },
    "customElements": [       
        {
            "label": "Info",
            "cssClasses": "msg msg--info",
            "selector": "p"
        },
        {
            "label": "Highlight",
            "cssClasses": "msg msg--highlight ",
            "selector": "p"
        },
        {
            "label": "Success",
            "cssClasses": "msg msg--success",
            "selector": "p"
        },
        {
            "label": "Warning",
            "cssClasses": "msg msg--warning",
            "selector": "p"
        },
        {
            "label": "Button default",
            "cssClasses": "button",
            "selector": "a, button, input[type=button], input[type=submit]"
        },
        {
            "label": "Button primary",
            "cssClasses": "button primary",
            "selector": "a, button, input[type=button], input[type=submit]"
        },
        {
            "label": "Button small",
            "cssClasses": "button small",
            "selector": "a, button, input[type=button], input[type=submit]"
        },
        {
            "label": "Button fit",
            "cssClasses": "button fit",
            "selector": "a, button, input[type=button], input[type=submit]"
        }
    ]
}
